Mat Object: 3 MPI processes
  type: mpisbaij
row 0: (0, 4.)  (1, -1.)  (6, -1.) 
row 1: (1, 4.)  (2, -1.)  (7, -1.) 
row 2: (2, 4.)  (3, -1.)  (8, -1.) 
row 3: (3, 4.)  (4, -1.)  (9, -1.) 
row 4: (4, 4.)  (5, -1.)  (6, 100.)  (10, -1.) 
row 5: (5, 4.)  (11, -1.) 
row 6: (6, 4.)  (7, -1.)  (12, -1.) 
row 7: (7, 4.)  (8, -1.)  (13, -1.) 
row 8: (8, 4.)  (9, -1.)  (14, -1.) 
row 9: (9, 4.)  (10, -1.)  (15, -1.) 
row 10: (10, 4.)  (11, -1.)  (16, -1.) 
row 11: (11, 4.)  (17, -1.) 
row 12: (12, 4.)  (13, -1.) 
row 13: (13, 4.)  (14, -1.) 
row 14: (14, 4.)  (15, -1.) 
row 15: (15, 4.)  (16, -1.) 
row 16: (16, 4.)  (17, -1.) 
row 17: (17, 4.) 

[2] Credundant:
Mat Object: 1 MPI processes
  type: seqsbaij
row 0: (0, 4.)  (1, -1.)  (6, -1.) 
row 1: (1, 4.)  (2, -1.)  (7, -1.) 
row 2: (2, 4.)  (3, -1.)  (8, -1.) 
row 3: (3, 4.)  (4, -1.)  (9, -1.) 
row 4: (4, 4.)  (5, -1.)  (6, 100.)  (10, -1.) 
row 5: (5, 4.)  (11, -1.) 
row 6: (6, 4.)  (7, -1.)  (12, -1.) 
row 7: (7, 4.)  (8, -1.)  (13, -1.) 
row 8: (8, 4.)  (9, -1.)  (14, -1.) 
row 9: (9, 4.)  (10, -1.)  (15, -1.) 
row 10: (10, 4.)  (11, -1.)  (16, -1.) 
row 11: (11, 4.)  (17, -1.) 
row 12: (12, 4.)  (13, -1.) 
row 13: (13, 4.)  (14, -1.) 
row 14: (14, 4.)  (15, -1.) 
row 15: (15, 4.)  (16, -1.) 
row 16: (16, 4.)  (17, -1.) 
row 17: (17, 4.) 
